{
  "name": "",
  "css_prefix_text": "icon-",
  "css_use_suffix": false,
  "hinting": true,
  "units_per_em": 1000,
  "ascent": 850,
  "glyphs": [
    {
      "uid": "381da2c2f7fd51f8de877c044d7f439d",
      "css": "picture",
      "code": 59403,
      "src": "fontawesome"
    },
    {
      "uid": "17ebadd1e3f274ff0205601eef7b9cc4",
      "css": "help-circled",
      "code": 59395,
      "src": "fontawesome"
    },
    {
      "uid": "0ddd3e8201ccc7d41f7b7c9d27eca6c1",
      "css": "link",
      "code": 59399,
      "src": "fontawesome"
    },
    {
      "uid": "eeec3208c90b7b48e804919d0d2d4a41",
      "css": "upload",
      "code": 59397,
      "src": "fontawesome"
    },
    {
      "uid": "f48ae54adfb27d8ada53d0fd9e34ee10",
      "css": "trash",
      "code": 59394,
      "src": "fontawesome"
    },
    {
      "uid": "b013f6403e5ab0326614e68d1850fd6b",
      "css": "resize-full-alt",
      "code": 59392,
      "src": "fontawesome"
    },
    {
      "uid": "02cca871bb69da75e8ee286b7055832c",
      "css": "bold",
      "code": 59404,
      "src": "fontawesome"
    },
    {
      "uid": "a8cb1c217f02b073db3670c061cc54d2",
      "css": "italic",
      "code": 59398,
      "src": "fontawesome"
    },
    {
      "uid": "a2a74f5e7b7d9ba054897d8c795a326a",
      "css": "list-bullet",
      "code": 59401,
      "src": "fontawesome"
    },
    {
      "uid": "f6766a8b042c2453a4e153af03294383",
      "css": "list-numbered",
      "code": 59402,
      "src": "fontawesome"
    },
    {
      "uid": "f4445feb55521283572ee88bc304f928",
      "css": "floppy",
      "code": 59393,
      "src": "fontawesome"
    },
    {
      "uid": "25fc99a30fecc4021fdcae5fff5ba9ac",
      "css": "eye",
      "code": 59396,
      "src": "entypo"
    },
    {
      "uid": "c3e5dafba1739ef33cc574c7484febf7",
      "css": "quote",
      "code": 59400,
      "src": "entypo"
    }
  ]
}