<?xml version="1.0" standalone="no"?>
<!DOCTYPE svg PUBLIC "-//W3C//DTD SVG 1.1//EN" "http://www.w3.org/Graphics/SVG/1.1/DTD/svg11.dtd">
<svg xmlns="http://www.w3.org/2000/svg">
<metadata>Copyright (C) 2013 by original authors @ fontello.com</metadata>
<defs>
<font id="fontello" horiz-adv-x="1000" >
<font-face font-family="fontello" font-weight="400" font-stretch="normal" units-per-em="1000" ascent="850" descent="-150" />
<missing-glyph horiz-adv-x="1000" />
<glyph glyph-name="heart" unicode="&#xe802;" d="m500-79q-14 0-25 10l-348 336q-5 5-15 15t-31 36t-38 55t-30 67t-13 77q0 123 71 192t196 70q34 0 70-12t67-33t54-38t42-38q20 20 42 38t54 38t67 33t70 12q125 0 196-70t71-192q0-123-128-251l-347-335q-10-10-25-10z" horiz-adv-x="1000" />
<glyph glyph-name="mail" unicode="&#xe80e;" d="m30 586q-32 18-28 40q2 14 26 14l846 0q38 0 20-32q-8-14-24-22q-14-6-192-102t-182-98q-16-10-46-10q-28 0-46 10q-4 2-182 98t-192 102z m850-100q20 10 20-10l0-368q0-16-17-32t-33-16l-800 0q-16 0-33 16t-17 32l0 368q0 20 20 10l384-200q18-10 46-10t46 10z" horiz-adv-x="900" />
<glyph glyph-name="attach" unicode="&#xe801;" d="m783 77q0-65-44-109t-109-44q-75 0-131 55l-434 434q-63 64-63 151q0 88 62 150t150 62q88 0 152-63l338-338q5-5 5-12q0-9-17-26t-26-17q-7 0-13 5l-338 339q-44 43-101 43q-59 0-100-42t-40-101q0-58 42-101l433-433q35-35 81-35q36 0 59 23t24 59q0 46-36 81l-324 324q-14 14-33 14q-16 0-27-11t-11-27q0-18 14-33l229-228q6-6 6-13q0-9-18-26t-26-17q-7 0-12 5l-229 229q-35 34-35 83q0 46 32 78t77 32q49 0 83-36l325-324q55-54 55-131z" horiz-adv-x="785.7" />
<glyph glyph-name="tags" unicode="&#xe803;" d="m250 600q0 30-21 51t-50 20t-51-20t-21-51t21-50t51-21t50 21t21 50z m595-321q0-30-20-51l-274-274q-22-21-51-21q-30 0-50 21l-399 399q-21 21-36 57t-15 65v232q0 29 21 50t50 22h233q29 0 65-15t57-36l399-399q20-21 20-50z m215 0q0-30-21-51l-274-274q-22-21-51-21q-20 0-33 8t-29 25l262 262q21 21 21 51q0 29-21 50l-399 399q-21 21-57 36t-65 15h125q29 0 65-15t57-36l399-399q21-21 21-50z" horiz-adv-x="1071.4" />
<glyph glyph-name="code" unicode="&#xe804;" d="m344 69l-28-28q-5-5-12-5t-13 5l-260 260q-6 6-6 13t6 13l260 260q5 6 13 6t12-6l28-28q6-5 6-13t-6-12l-219-220l219-219q6-6 6-13t-6-13z m330 596l-208-721q-2-7-9-11t-13-1l-34 9q-8 3-11 9t-2 14l208 720q3 8 9 11t13 2l35-10q7-2 11-9t1-13z m367-364l-260-260q-6-5-13-5t-13 5l-28 28q-5 6-5 13t5 13l219 219l-219 220q-5 5-5 12t5 13l28 28q6 6 13 6t13-6l260-260q5-5 5-13t-5-13z" horiz-adv-x="1071.4" />
<glyph glyph-name="print" unicode="&#xe806;" d="m214-7h500v143h-500v-143z m0 357h500v214h-89q-22 0-38 16t-16 38v89h-357v-357z m643-36q0 15-10 25t-26 11t-25-11t-10-25t10-25t25-10t26 10t10 25z m72 0v-232q0-7-6-12t-12-6h-125v-89q0-22-16-38t-38-16h-536q-22 0-37 16t-16 38v89h-125q-7 0-13 6t-5 12v232q0 44 32 76t75 31h36v304q0 22 16 38t37 16h375q23 0 50-12t42-26l85-85q15-16 27-43t11-49v-143h35q45 0 76-31t32-76z" horiz-adv-x="928.6" />
<glyph glyph-name="keyboard" unicode="&#xe805;" d="m214 198v-53q0-9-9-9h-53q-9 0-9 9v53q0 9 9 9h53q9 0 9-9z m72 143v-53q0-9-9-9h-125q-9 0-9 9v53q0 9 9 9h125q9 0 9-9z m-72 143v-54q0-9-9-9h-53q-9 0-9 9v54q0 9 9 9h53q9 0 9-9z m572-286v-53q0-9-9-9h-482q-9 0-9 9v53q0 9 9 9h482q9 0 9-9z m-357 143v-53q0-9-9-9h-54q-9 0-9 9v53q0 9 9 9h54q9 0 9-9z m-72 143v-54q0-9-9-9h-53q-9 0-9 9v54q0 9 9 9h53q9 0 9-9z m214-143v-53q0-9-8-9h-54q-9 0-9 9v53q0 9 9 9h54q8 0 8-9z m-71 143v-54q0-9-9-9h-53q-9 0-9 9v54q0 9 9 9h53q9 0 9-9z m214-143v-53q0-9-9-9h-53q-9 0-9 9v53q0 9 9 9h53q9 0 9-9z m215-143v-53q0-9-9-9h-54q-9 0-9 9v53q0 9 9 9h54q9 0 9-9z m-286 286v-54q0-9-9-9h-54q-9 0-9 9v54q0 9 9 9h54q9 0 9-9z m143 0v-54q0-9-9-9h-54q-9 0-9 9v54q0 9 9 9h54q9 0 9-9z m143 0v-196q0-9-9-9h-125q-9 0-9 9v53q0 9 9 9h62v134q0 9 9 9h54q9 0 9-9z m71-420v500h-929v-500h929z m71 500v-500q0-29-21-50t-50-21h-929q-29 0-50 21t-21 50v500q0 30 21 51t50 21h929q30 0 50-21t21-51z" horiz-adv-x="1071.4" />
<glyph glyph-name="link" unicode="&#xe800;" d="m812 171q0 23-15 38l-116 116q-16 16-38 16q-24 0-40-18q1-1 10-10t12-12t9-11t7-14t2-15q0-23-16-38t-38-16q-8 0-15 2t-14 7t-11 9t-12 12t-10 10q-19-17-19-40q0-23 16-38l115-116q15-15 38-15q22 0 38 15l82 81q15 16 15 37z m-392 394q0 22-15 38l-115 115q-16 16-38 16q-22 0-38-15l-82-82q-16-15-16-37q0-22 16-38l116-116q15-15 38-15q23 0 40 17q-2 2-11 11t-12 12t-8 10t-7 14t-2 16q0 22 15 38t38 15q9 0 16-2t14-7t10-8t12-12t11-11q18 17 18 41z m500-394q0-67-48-113l-82-81q-46-47-113-47q-68 0-114 48l-115 115q-46 47-46 114q0 68 49 116l-49 49q-48-49-116-49q-67 0-114 47l-116 116q-47 47-47 114t47 113l82 82q47 46 114 46q67 0 114-47l114-116q47-46 47-113q0-69-49-117l49-49q48 49 116 49q67 0 114-47l116-116q47-47 47-114z" horiz-adv-x="928.6" />
<glyph glyph-name="rss" unicode="&#xe808;" d="m214 100q0-45-31-76t-76-31t-76 31t-31 76t31 76t76 31t76-31t31-76z m286-69q1-15-9-26q-11-12-27-12h-75q-14 0-24 9t-11 23q-12 128-103 219t-219 103q-14 1-23 11t-9 24v75q0 16 12 26q9 10 24 10h3q89-7 170-45t145-101q63-63 101-145t45-171z m286-1q1-15-10-26q-10-11-26-11h-80q-14 0-25 10t-11 23q-6 120-56 228t-129 188t-188 129t-227 57q-14 0-24 11t-10 24v80q0 15 11 26q10 10 25 10h1q147-8 280-67t238-164q104-104 164-238t67-280z" horiz-adv-x="785.7" />
<glyph glyph-name="phone" unicode="&#xe809;" d="m786 158q0-15-6-39t-12-38q-11-28-68-60q-52-28-103-28q-16 0-30 2t-32 7t-26 8t-31 11t-28 10q-54 20-97 47q-72 44-148 120t-120 148q-27 43-46 97q-2 5-10 28t-12 31t-8 26t-7 32t-2 29q0 52 29 104q31 56 59 68q14 6 38 12t39 6q8 0 12-2q10-3 30-43q6-10 16-30t20-35t17-30q2-2 10-14t12-20t4-16q0-11-16-28t-35-30t-34-30t-16-25q0-5 3-13t4-11t8-14t7-10q42-77 97-132t131-97q1 0 10-6t14-8t11-5t13-2q10 0 25 15t30 35t31 35t28 16q7 0 15-4t20-12t14-10q14-8 30-17t35-20t31-17q39-19 42-29q2-4 2-12z" horiz-adv-x="785.7" />
<glyph glyph-name="coffee" unicode="&#xe80a;" d="m929 493q0 45-32 76t-76 31h-35v-214h35q45 0 76 31t32 76z m-929-429h1000q0-59-42-101t-101-42h-714q-59 0-101 42t-42 101z m1036 429q0-89-63-152t-152-62h-35v-18q0-52-37-88t-88-37h-393q-51 0-88 37t-37 88v410q0 15 11 26t25 10h642q89 0 152-63t63-151z" horiz-adv-x="1071.4" />
<glyph glyph-name="github-circled" unicode="&#xe80b;" d="m857 350q0-140-82-252t-211-155q-15-3-22 4t-7 17v118q0 54-29 79q32 3 57 10t53 22t45 37t30 58t11 84q0 68-44 115q21 51-5 114q-15 5-45-6t-51-25l-21-13q-52 15-107 15t-108-15q-8 6-23 15t-47 22t-48 7q-24-63-4-114q-44-47-44-115q0-47 12-83t29-59t45-37t52-22t57-10q-22-20-27-58q-12-5-25-8t-32-3t-36 12t-31 35q-11 18-27 29t-28 14l-11 1q-12 0-16-2t-3-7t5-8t7-6l4-3q12-6 24-21t18-29l5-13q8-21 25-34t37-17t39-4t31 2l13 3q0-22 0-50t1-30q0-10-8-17t-22-4q-129 43-211 155t-82 252q0 117 58 215t155 156t216 58t215-58t156-156t57-215z" horiz-adv-x="857.1" />
<glyph glyph-name="html5" unicode="&#xe80c;" d="m631 517l9 98h-494l26-298h342l-12-128l-110-29l-110 29l-7 78h-98l13-155l202-55h2v0l200 55l28 304h-359l-9 101h377z m-631 262h786l-72-803l-322-90l-321 90z" horiz-adv-x="785.7" />
<glyph glyph-name="linux" unicode="&#xe80d;" d="m370 621q-6-1-9-6t-4-6q-3 0-3 3q0 7 10 9h6z m49-8q-3-1-7 3t-10 3q14 6 18-1q2-3-1-5z m-196-238q-3 0-4-2t-2-7t-3-8t-6-7q-4-5 0-7q2 0 7 4t7 10q0 2 1 4t1 4t1 2t0 2v2t-1 1t-1 2z m477-201q0 10-31 24q2 8 4 15t3 15t2 12t0 12t-1 11t-1 12t-3 12t-3 14t-3 14q-5 27-26 58t-40 42q13-11 32-47q48-90 30-155q-6-22-28-23q-17-2-21 10t-5 47t-6 59q-5 22-11 39t-11 25t-9 14t-7 8t-4 4q-8 35-17 58t-17 31t-13 18t-8 23q-3 12 3 30t2 27t-24 14q-9 2-25 10t-20 9q-4 1-6 15t4 28t20 15q21 2 29-17t2-32q-6-10-1-15t17 0q7 2 7 20v21q-3 17-8 28t-11 17t-13 8t-15 4q-60-4-50-75q0-8-1-8q-5 5-16 6t-19 0t-8 2q0 32-9 51t-25 19q-15 0-23-16t-10-33q0-8 2-21t8-20t8-8q6 2 9 8q2 5-4 4q-4 0-8 8t-6 19q0 12 5 21t19 8q10 0 15-12t6-22t-1-12q-12-9-17-16q-5-7-16-14t-11-6q-7-8-9-16t4-10q8-4 14-10t9-11t10-7t20-4q27-1 57 8q1 1 13 4t19 6t17 7t11 10q6 8 12 5q2-2 3-5t-1-7t-10-5q-11-3-31-12t-26-11q-24-11-39-13q-14-3-44 1q-5 1-5-1t10-10q14-13 37-13q10 1 20 4t20 8t19 10t17 9t13 7t10 1t5-6q0-1-1-2t-2-3t-3-3t-5-2t-5-3t-6-3t-5-2q-15-8-37-25t-38-24t-27 0q-12 6-35 40q-12 18-14 13q-1-2-1-6q0-14-8-31t-16-31t-12-33t6-35q-13-3-35-50t-26-79q-1-10-1-38t-3-33q-4-14-16-2q-18 17-20 53q-1 15 2 31q2 10-1 10l-2-3q-20-36 6-93q3-6 14-15t13-11q11-13 58-51t52-42q9-9 10-22t-8-24t-25-13q4-8 16-24t15-30t4-40q26 14 4 52q-2 4-6 8t-5 7t-1 3q2 3 7 6t11-2q26-29 93-20q74 9 99 49q13 21 19 17q6-4 5-29q0-14-13-52q-5-13-3-21t13-8q2 10 9 43t7 50q1 12-4 41t-4 54t13 39q9 10 29 10q0 21 19 30t40 6t34-13z m-351 462q2 9-1 16t-6 9q-5 1-5-4q1-3 2-3q6 0 4-9q-1-11 5-11q1 0 1 2z m234-110q-1 4-3 6t-8 3t-8 3q-3 2-5 5t-4 4t-3 4t-2 2t-3-1q-7-9 4-24t22-18q5 0 8 5t2 11z m-99 119q0 6-3 11t-6 6t-5 2q-8 0-4-4l2-1q8-2 10-17q0-2 5 1z m30 130q0 1-1 2t-5 4t-6 4q-8 8-13 8q-5 0-7-4t0-7t0-7q-1-3-4-6t-3-5t2-5q2-2 4 0t6 5t9 5q0 1 5 1t8 1t5 4z m315-749q11-6 18-13t6-14t-1-12t-9-13t-13-10t-17-11t-17-9t-18-9t-15-7q-21-11-48-31t-42-36q-9-9-38-11t-50 8q-10 5-16 13t-9 15t-13 11t-26 5q-24 0-72 0q-11 0-32 0t-32-2q-25 0-45-8t-30-17t-24-16t-30-6q-16 0-62 17t-81 24q-11 2-29 5t-28 5t-22 6t-18 8t-10 11q-5 12 4 37t10 30q1 9-2 23t-6 23t-2 21t6 15q7 6 31 8t34 6q17 10 23 20t7 28q12-41-18-59q-18-11-46-8q-19 1-24-6q-7-8 3-32q1-3 4-10t5-10t2-9t1-13q0-8-9-27t-8-27q1-9 20-14q12-4 47-11t56-11q13-3 41-12t46-13t31-2q24 3 36 15t13 27t-4 33t-11 29t-11 20q-67 106-94 135q-38 41-63 23q-6-6-9 8q-1 9-1 21q1 16 6 29t13 26t13 24q4 11 14 40t17 43t17 34t21 31q62 79 70 108q-7 63-9 173q-2 51 13 85t59 58q22 12 58 12q30 1 59-8t50-23q32-23 51-68t17-82q-3-53 16-119q19-63 74-122q31-33 56-91t33-106q5-28 3-48t-7-31t-11-12q-5-1-13-10t-15-20t-23-19t-34-8q-10 1-17 3t-13 8t-7 8t-7 12t-5 10q-12 21-23 17t-15-27t4-54q11-39 0-109q-5-36 10-56t41-19t47 20q33 28 50 37t58 24q30 10 43 20t10 20t-14 16t-28 13q-19 6-28 27t-8 40t8 26q1-17 5-31t8-23t11-16t12-10t12-7t9-6z" horiz-adv-x="857.1" />
<glyph glyph-name="comment" unicode="&#xe807;" d="m1000 350q0-97-67-179t-182-130t-251-48q-39 0-81 4q-110-97-257-135q-27-8-63-12q-10-1-17 5t-10 16v1q-2 2 0 6t1 6t2 5l4 5t4 5t4 5q4 5 17 19t20 22t17 22t18 28t15 33t15 42q-88 50-138 123t-51 157q0 73 40 139t106 114t160 76t194 28q136 0 251-48t182-130t67-179z" horiz-adv-x="1000" />
</font>
</defs>
</svg>